%YAML 1.1
%TAG !u! tag:unity3d.com,2011:
--- !u!114 &11400000
MonoBehaviour:
  m_ObjectHideFlags: 0
  m_CorrespondingSourceObject: {fileID: 0}
  m_PrefabInstance: {fileID: 0}
  m_PrefabAsset: {fileID: 0}
  m_GameObject: {fileID: 0}
  m_Enabled: 1
  m_EditorHideFlags: 0
  m_Script: {fileID: 11500000, guid: 05afd142c2754e95af5861804a5e2f60, type: 3}
  m_Name: UsePostionLargeAudioEvent
  m_EditorClassIdentifier: 
  _clips:
  - {fileID: 8300000, guid: 4355dd28c7379fb49819c75fb920c83e, type: 3}
  _randomizeVolume: 0
  _volume: 0.7
  _minMaxVolume:
    MinVolume: 0
    MaxVolume: 0
  _randomizePitch: 0
  _pitch: 1
  _minPitch: 0
  _maxPitch: 0
