%YAML 1.1
%TAG !u! tag:unity3d.com,2011:
--- !u!114 &11400000
MonoBehaviour:
  m_ObjectHideFlags: 0
  m_CorrespondingSourceObject: {fileID: 0}
  m_PrefabInstance: {fileID: 0}
  m_PrefabAsset: {fileID: 0}
  m_GameObject: {fileID: 0}
  m_Enabled: 1
  m_EditorHideFlags: 0
  m_Script: {fileID: 11500000, guid: 807bd0318bc34fbdb9e0760a95c19304, type: 3}
  m_Name: Grenade
  m_EditorClassIdentifier: 
  _itemName: Diamond Grenade
  _description: Inflicts a huge amount of damage
  _itemSprite: {fileID: 21300000, guid: e7d29a79bc7fae248887c8a08a160303, type: 3}
  _consumeUponUse: 1
  _isUnique: 0
  _itemMesh: {fileID: 10202, guid: 0000000000000000e000000000000000, type: 0}
  _itemType: {fileID: 11400000, guid: 982830630545a3749846dafe305e1d40, type: 2}
  _scriptableAudioEvent: {fileID: 11400000, guid: 16c2c12cd3cc0644885f5c8979083725,
    type: 2}
  _damage: 5
